12,08,08,08,08,04,04,04,04,04,04,08,08,08,08,08,08,08,08,08,08,08,08,08,08
08,19,06,20,08,04,04,04,04,02,01,04,04,04,04,04,04,08,04,08,08,08,12,08,08
08,30,14,25,20,08,08,08,04,04,02,04,08,04,02,08,08,08,04,08,08,04,08,08,08
08,13,31,14,15,08,08,08,08,08,08,09,08,08,04,01,12,03,03,03,01,04,08,08,08
19,26,14,14,25,20,08,08,08,08,08,08,08,08,08,08,04,08,08,03,03,04,08,08,08
13,14,14,14,14,29,08,08,08,08,08,12,04,08,08,08,04,04,09,08,08,04,12,08,08
30,14,14,31,14,25,06,06,20,08,08,08,04,08,08,12,08,04,04,08,08,04,08,08,08
13,14,14,14,14,14,14,14,25,20,08,08,08,08,12,08,08,08,04,04,08,04,08,08,08
27,18,14,14,14,14,14,14,17,28,08,08,08,08,04,08,08,08,08,04,08,04,08,08,08
08,13,31,14,17,16,22,22,28,08,08,08,08,08,04,08,08,08,08,02,08,04,08,08,08
08,13,14,17,28,08,08,03,08,19,20,09,08,08,08,08,12,08,08,04,02,02,08,08,08
08,27,22,28,08,12,08,03,03,13,15,11,08,08,08,08,08,08,08,04,08,02,08,08,08
08,08,08,08,08,08,08,08,08,30,25,20,08,08,08,08,08,10,08,04,08,04,04,08,08
08,08,12,08,08,08,08,08,08,21,22,28,08,04,10,08,04,04,04,04,04,08,04,04,08
08,04,08,09,08,08,04,08,08,08,08,08,08,04,08,08,04,08,04,08,08,02,04,04,08
08,04,08,12,04,04,10,08,08,10,08,08,08,08,08,09,08,08,04,08,01,01,03,04,08
08,01,01,02,08,08,08,08,08,08,08,08,08,04,04,08,08,08,08,08,01,03,08,08,10
08,08,02,04,08,08,08,08,08,08,08,04,04,04,12,08,08,08,08,08,08,02,08,08,08
08,08,08,04,04,01,02,04,10,08,04,04,08,08,04,04,08,08,10,04,04,08,08,08,08
08,08,08,08,08,08,08,08,08,08,08,08,08,04,04,08,08,08,08,08,08,08,08,08,08
